lab2/codes/CPU.vcd
$date
	Wed May 17 23:37:05 2023
$end
$version
	Icarus Verilog
$end
$timescale
	1s
$end
$scope module TestBench $end
$var parameter 32 ! num_cycles $end
$var reg 1 " Clk $end
$var reg 1 # Reset $end
$var integer 32 $ counter [31:0] $end
$var integer 32 % flush [31:0] $end
$var integer 32 & i [31:0] $end
$var integer 32 ' outfile [31:0] $end
$var integer 32 ( stall [31:0] $end
$scope module CPU $end
$var wire 32 ) ALU_A_i [31:0] $end
$var wire 1 * ID_Flush $end
$var wire 1 + ID_to_branch $end
$var wire 1 " clk_i $end
$var wire 1 # rst_i $end
$var wire 12 , imme_o [11:0] $end
$var wire 1 - WB_RegWrite $end
$var wire 32 . WB_RDdata [31:0] $end
$var wire 5 / WB_RD [4:0] $end
$var wire 1 0 WB_MemtoReg $end
$var wire 32 1 WB_MD [31:0] $end
$var wire 32 2 WB_ALUout [31:0] $end
$var wire 1 3 Stall $end
$var wire 1 4 PCWrite $end
$var wire 1 5 NoOp $end
$var wire 32 6 MUX_B_o [31:0] $end
$var wire 32 7 MUX_A_o [31:0] $end
$var wire 32 8 MEM_WD [31:0] $end
$var wire 1 9 MEM_RegWrite $end
$var wire 5 : MEM_RD [4:0] $end
$var wire 1 ; MEM_MemtoReg $end
$var wire 1 < MEM_MemWrite $end
$var wire 1 = MEM_MemRead $end
$var wire 32 > MEM_MD [31:0] $end
$var wire 32 ? MEM_ALUout [31:0] $end
$var wire 32 @ IF_PC_o [31:0] $end
$var wire 32 A IF_PC_i [31:0] $end
$var wire 32 B IF_IR [31:0] $end
$var wire 32 C IF_Adder_o [31:0] $end
$var wire 32 D ID_imme [31:0] $end
$var wire 32 E ID_data2 [31:0] $end
$var wire 32 F ID_data1 [31:0] $end
$var wire 32 G ID_branch_PC [31:0] $end
$var wire 5 H ID_Rs2 [4:0] $end
$var wire 5 I ID_Rs1 [4:0] $end
$var wire 1 J ID_RegWrite $end
$var wire 5 K ID_RD [4:0] $end
$var wire 32 L ID_PC [31:0] $end
$var wire 1 M ID_MemtoReg $end
$var wire 1 N ID_MemWrite $end
$var wire 1 O ID_MemRead $end
$var wire 32 P ID_IR [31:0] $end
$var wire 1 Q ID_Branch $end
$var wire 1 R ID_ALUSrc $end
$var wire 2 S ID_ALUOp [1:0] $end
$var wire 2 T ForwardB [1:0] $end
$var wire 2 U ForwardA [1:0] $end
$var wire 32 V EX_imme [31:0] $end
$var wire 5 W EX_Rs2 [4:0] $end
$var wire 5 X EX_Rs1 [4:0] $end
$var wire 1 Y EX_RegWrite $end
$var wire 5 Z EX_RD [4:0] $end
$var wire 32 [ EX_PC [31:0] $end
$var wire 1 \ EX_MemtoReg $end
$var wire 1 ] EX_MemWrite $end
$var wire 1 ^ EX_MemRead $end
$var wire 32 _ EX_IR [31:0] $end
$var wire 32 ` EX_B [31:0] $end
$var wire 32 a EX_ALUout [31:0] $end
$var wire 1 b EX_ALUSrc $end
$var wire 2 c EX_ALUOp [1:0] $end
$var wire 32 d EX_A [31:0] $end
$var wire 3 e ALUctl [2:0] $end
$var wire 32 f ALU_B_i [31:0] $end
$scope module ALU $end
$var wire 32 g op1 [31:0] $end
$var wire 32 h op2 [31:0] $end
$var wire 3 i ctl [2:0] $end
$var reg 32 j res [31:0] $end
$var reg 32 k tmp [31:0] $end
$upscope $end
$scope module ALU_Control $end
$var wire 3 l funct3 [2:0] $end
$var wire 7 m funct7 [6:0] $end
$var wire 2 n ALUOp [1:0] $end
$var reg 3 o ALUctl [2:0] $end
$upscope $end
$scope module Add_PC $end
$var wire 32 p b [31:0] $end
$var wire 32 q c [31:0] $end
$var wire 32 r a [31:0] $end
$upscope $end
$scope module Control $end
$var wire 1 s I_type $end
$var wire 1 t R_type $end
$var wire 7 u opcode [6:0] $end
$var wire 1 5 NoOp $end
$var reg 2 v ALUOp [1:0] $end
$var reg 1 R ALUSrc $end
$var reg 1 Q Branch $end
$var reg 1 O MemRead $end
$var reg 1 N MemWrite $end
$var reg 1 M MemtoReg $end
$var reg 1 J RegWrite $end
$upscope $end
$scope module Data_Memory $end
$var wire 1 " clk_i $end
$var wire 32 w data_o [31:0] $end
$var wire 32 x data_i [31:0] $end
$var wire 32 y addr_i [31:0] $end
$var wire 1 < MemWrite_i $end
$var wire 1 = MemRead_i $end
$upscope $end
$scope module EX_MEM $end
$var wire 32 z ALUout_i [31:0] $end
$var wire 1 " clk_i $end
$var wire 1 # rst_i $end
$var wire 32 { WD_i [31:0] $end
$var wire 1 Y RegWrite_i $end
$var wire 5 | RD_i [4:0] $end
$var wire 1 \ MemtoReg_i $end
$var wire 1 ] MemWrite_i $end
$var wire 1 ^ MemRead_i $end
$var reg 32 } ALUout_o [31:0] $end
$var reg 1 = MemRead_o $end
$var reg 1 < MemWrite_o $end
$var reg 1 ; MemtoReg_o $end
$var reg 5 ~ RD_o [4:0] $end
$var reg 1 9 RegWrite_o $end
$var reg 32 !" WD_o [31:0] $end
$upscope $end
$scope module Forwarding_Unit $end
$var wire 5 "" MEM_Rd [4:0] $end
$var wire 1 9 MEM_RegWrite $end
$var wire 1 - WB_RegWrite $end
$var wire 5 #" WB_RD [4:0] $end
$var wire 5 $" EX_Rs2 [4:0] $end
$var wire 5 %" EX_Rs1 [4:0] $end
$var reg 2 &" ForwardA [1:0] $end
$var reg 2 '" ForwardB [1:0] $end
$upscope $end
$scope module Hazard_Detection_Unit $end
$var wire 5 (" ID_Rs1 [4:0] $end
$var wire 5 )" ID_Rs2 [4:0] $end
$var wire 1 " clk_i $end
$var wire 1 # rst_i $end
$var wire 5 *" EX_Rd [4:0] $end
$var wire 1 ^ EX_MemRead $end
$var reg 1 5 NoOp $end
$var reg 1 4 PCWrite $end
$var reg 1 3 Stall $end
$upscope $end
$scope module ID_EX $end
$var wire 2 +" ALUOp_i [1:0] $end
$var wire 1 R ALUSrc_i $end
$var wire 1 O MemRead_i $end
$var wire 1 N MemWrite_i $end
$var wire 1 M MemtoReg_i $end
$var wire 5 ," RD_i [4:0] $end
$var wire 1 J RegWrite_i $end
$var wire 5 -" Rs1_i [4:0] $end
$var wire 5 ." Rs2_i [4:0] $end
$var wire 1 " clk_i $end
$var wire 1 # rst_i $end
$var wire 32 /" imme_i [31:0] $end
$var wire 32 0" PC_i [31:0] $end
$var wire 32 1" IR_i [31:0] $end
$var wire 32 2" B_i [31:0] $end
$var wire 32 3" A_i [31:0] $end
$var reg 2 4" ALUOp_o [1:0] $end
$var reg 1 b ALUSrc_o $end
$var reg 32 5" A_o [31:0] $end
$var reg 32 6" B_o [31:0] $end
$var reg 32 7" IR_o [31:0] $end
$var reg 1 ^ MemRead_o $end
$var reg 1 ] MemWrite_o $end
$var reg 1 \ MemtoReg_o $end
$var reg 32 8" PC_o [31:0] $end
$var reg 5 9" RD_o [4:0] $end
$var reg 1 Y RegWrite_o $end
$var reg 5 :" Rs1_o [4:0] $end
$var reg 5 ;" Rs2_o [4:0] $end
$var reg 32 <" imme_o [31:0] $end
$upscope $end
$scope module IF_ID $end
$var wire 1 * Flush_i $end
$var wire 1 3 Stall_i $end
$var wire 1 " clk_i $end
$var wire 1 # rst_i $end
$var wire 32 =" PC_i [31:0] $end
$var wire 32 >" IR_i [31:0] $end
$var reg 32 ?" IR_o [31:0] $end
$var reg 32 @" PC_o [31:0] $end
$upscope $end
$scope module Imme_Gen $end
$var wire 32 A" IR [31:0] $end
$var reg 12 B" imme [11:0] $end
$upscope $end
$scope module Instruction_Memory $end
$var wire 32 C" instr_o [31:0] $end
$var wire 32 D" addr_i [31:0] $end
$upscope $end
$scope module MEM_WB $end
$var wire 32 E" ALUout_i [31:0] $end
$var wire 32 F" MD_i [31:0] $end
$var wire 1 ; MemtoReg_i $end
$var wire 5 G" RD_i [4:0] $end
$var wire 1 9 RegWrite_i $end
$var wire 1 " clk_i $end
$var wire 1 # rst_i $end
$var reg 32 H" ALUout_o [31:0] $end
$var reg 32 I" MD_o [31:0] $end
$var reg 1 0 MemtoReg_o $end
$var reg 5 J" RD_o [4:0] $end
$var reg 1 - RegWrite_o $end
$upscope $end
$scope module MUX_A $end
$var wire 32 K" in00 [31:0] $end
$var wire 32 L" in10 [31:0] $end
$var wire 32 M" in11 [31:0] $end
$var wire 2 N" swt [1:0] $end
$var wire 32 O" in01 [31:0] $end
$var reg 32 P" res [31:0] $end
$upscope $end
$scope module MUX_ALUSrc $end
$var wire 32 Q" in1 [31:0] $end
$var wire 1 b swt $end
$var wire 32 R" in0 [31:0] $end
$var reg 32 S" res [31:0] $end
$upscope $end
$scope module MUX_B $end
$var wire 32 T" in00 [31:0] $end
$var wire 32 U" in10 [31:0] $end
$var wire 32 V" in11 [31:0] $end
$var wire 2 W" swt [1:0] $end
$var wire 32 X" in01 [31:0] $end
$var reg 32 Y" res [31:0] $end
$upscope $end
$scope module MUX_PC $end
$var wire 32 Z" in0 [31:0] $end
$var wire 32 [" in1 [31:0] $end
$var wire 1 + swt $end
$var reg 32 \" res [31:0] $end
$upscope $end
$scope module PC $end
$var wire 1 4 PCWrite_i $end
$var wire 1 " clk_i $end
$var wire 32 ]" pc_i [31:0] $end
$var wire 1 # rst_i $end
$var reg 32 ^" pc_o [31:0] $end
$upscope $end
$scope module Registers $end
$var wire 5 _" RDaddr_i [4:0] $end
$var wire 5 `" RS1addr_i [4:0] $end
$var wire 5 a" RS2addr_i [4:0] $end
$var wire 1 - RegWrite_i $end
$var wire 1 " clk_i $end
$var wire 1 # rst_i $end
$var wire 32 b" RS2data_o [31:0] $end
$var wire 32 c" RS1data_o [31:0] $end
$var wire 32 d" RDdata_i [31:0] $end
$var integer 32 e" i [31:0] $end
$upscope $end
$scope module Sign_Extend $end
$var wire 12 f" in [11:0] $end
$var wire 32 g" out [31:0] $end
$var wire 20 h" ext [19:0] $end
$upscope $end
$scope module WB_MUX $end
$var wire 32 i" in0 [31:0] $end
$var wire 32 j" in1 [31:0] $end
$var wire 1 0 swt $end
$var reg 32 k" res [31:0] $end
$upscope $end
$upscope $end
$upscope $end
$enddefinitions $end
$comment Show the parameter values. $end
$dumpall
b1000000 !
$end
#0
$dumpvars
bx k"
bx j"
bx i"
bx h"
bx g"
bx f"
bx e"
bx d"
bx c"
bx b"
bx a"
bx `"
bx _"
bx ^"
bx ]"
bx \"
bx ["
bx Z"
bx Y"
bx X"
bx W"
b0 V"
bx U"
bx T"
bx S"
bx R"
bx Q"
bx P"
bx O"
bx N"
b0 M"
bx L"
bx K"
bx J"
bx I"
bx H"
bx G"
bx F"
bx E"
bx D"
bx C"
bx B"
bx A"
bx @"
bx ?"
bx >"
bx ="
bx <"
bx ;"
bx :"
bx 9"
bx 8"
bx 7"
bx 6"
bx 5"
bx 4"
bx 3"
bx 2"
bx 1"
bx 0"
bx /"
bx ."
bx -"
bx ,"
bx +"
bx *"
bx )"
bx ("
bx '"
bx &"
bx %"
bx $"
bx #"
bx ""
bx !"
bx ~
bx }
bx |
bx {
bx z
bx y
bx x
bx w
bx v
bx u
1t
1s
bx r
bx q
b100 p
bx o
bx n
bx m
bx l
bx k
bx j
bx i
bx h
bx g
bx f
bx e
bx d
bx c
xb
bx a
bx `
bx _
x^
x]
x\
bx [
bx Z
xY
bx X
bx W
bx V
bx U
bx T
bx S
xR
xQ
bx P
xO
xN
xM
bx L
bx K
xJ
bx I
bx H
bx G
bx F
bx E
bx D
bx C
bx B
bx A
bx @
bx ?
bx >
x=
x<
x;
bx :
x9
bx 8
bx 7
bx 6
x5
x4
x3
bx 2
bx 1
x0
bx /
bx .
x-
bx ,
x+
x*
bx )
b0 (
b11 '
b100000 &
b0 %
b0 $
1#
0"
$end
#6
b0 a
b0 j
b0 z
b0 f
b0 h
b0 S"
0*
0+
0Q
0N
0O
0M
0J
0R
b0 S
b0 v
b0 +"
b100 A
b100 \"
b100 ]"
b0 e
b0 i
b0 o
03
14
05
b0 )
b0 g
b0 7
b0 P"
b0 6
b0 {
b0 R"
b0 Y"
b0 T
b0 '"
b0 W"
b0 U
b0 &"
b0 N"
b0 .
b0 O"
b0 X"
b0 d"
b0 k"
b0 F
b0 3"
b0 c"
b0 E
b0 2"
b0 b"
b10010000000011 B
b10010000000011 >"
b10010000000011 C"
b0 u
b0 H
b0 )"
b0 ."
b0 a"
b0 I
b0 ("
b0 -"
b0 `"
b0 K
b0 ,"
b0 l
b0 m
b0 >
b0 w
b0 F"
b100 C
b100 q
b100 Z"
b0 @
b0 r
b0 ="
b0 D"
b0 ^"
b0 P
b0 1"
b0 ?"
b0 A"
b0 L
b0 0"
b0 @"
b0 _
b0 7"
b0 W
b0 $"
b0 ;"
b0 X
b0 %"
b0 :"
0b
b0 c
b0 n
b0 4"
0]
0^
0\
0Y
b0 Z
b0 |
b0 *"
b0 9"
b0 [
b0 8"
b0 V
b0 <"
b0 Q"
b0 `
b0 6"
b0 T"
b0 d
b0 5"
b0 K"
0<
0=
0;
09
b0 :
b0 ~
b0 ""
b0 G"
b0 8
b0 x
b0 !"
b0 ?
b0 y
b0 }
b0 E"
b0 L"
b0 U"
00
0-
b0 /
b0 #"
b0 J"
b0 _"
b0 1
b0 I"
b0 j"
b0 2
b0 H"
b0 i"
b100000 e"
0#
#12
1#
#25
b0 G
b0 ["
b0 h"
1R
b1 S
b1 v
b1 +"
1O
1M
1J
b0 D
b0 /"
b0 g"
b0 ,
b0 B"
b0 f"
b1000 A
b1000 \"
b1000 ]"
b11 u
b1000 K
b1000 ,"
b100001000000010010110011 B
b100001000000010010110011 >"
b100001000000010010110011 C"
bx V
bx <"
bx Q"
b10010000000011 P
b10010000000011 1"
b10010000000011 ?"
b10010000000011 A"
b1000 C
b1000 q
b1000 Z"
b100 @
b100 r
b100 ="
b100 D"
b100 ^"
b1 $
1"
#50
0"
#75
0J
0R
b0 S
b0 v
b0 +"
0O
0M
13
04
15
b1100 A
b1100 \"
b1100 ]"
b11 e
b11 i
b11 o
b10000000010010100000011 B
b10000000010010100000011 >"
b10000000010010100000011 C"
b110011 u
b1000 H
b1000 )"
b1000 ."
b1000 a"
b1000 I
b1000 ("
b1000 -"
b1000 `"
b1001 K
b1001 ,"
b10 l
b1100 C
b1100 q
b1100 Z"
b1000 @
b1000 r
b1000 ="
b1000 D"
b1000 ^"
b100001000000010010110011 P
b100001000000010010110011 1"
b100001000000010010110011 ?"
b100001000000010010110011 A"
b100 G
b100 ["
b100 L
b100 0"
b100 @"
b10010000000011 _
b10010000000011 7"
1b
b1 c
b1 n
b1 4"
1^
1\
1Y
b1000 Z
b1000 |
b1000 *"
b1000 9"
b0 V
b0 <"
b0 Q"
b10 $
1"
#100
0"
#125
b11 S
b11 v
b11 +"
1J
b10 T
b10 '"
b10 W"
b10 U
b10 &"
b10 N"
b0 e
b0 i
b0 o
03
14
05
b101 >
b101 w
b101 F"
b0 l
1=
1;
19
b1000 :
b1000 ~
b1000 ""
b1000 G"
b100001000000010010110011 _
b100001000000010010110011 7"
b1000 W
b1000 $"
b1000 ;"
b1000 X
b1000 %"
b1000 :"
0b
b0 c
b0 n
b0 4"
0^
0\
0Y
b1001 Z
b1001 |
b1001 *"
b1001 9"
b100 [
b100 8"
b11 $
b1 (
1"
#150
0"
#175
b1010 a
b1010 j
b1010 z
b101 f
b101 h
b101 S"
b101 )
b101 g
b101 7
b101 P"
b101 6
b101 {
b101 R"
b101 Y"
1R
b1 S
b1 v
b1 +"
1O
1M
b100 D
b100 /"
b100 g"
b100 ,
b100 B"
b100 f"
b10000 A
b10000 \"
b10000 ]"
b11 e
b11 i
b11 o
b1 T
b1 '"
b1 W"
b1 U
b1 &"
b1 N"
b101 .
b101 O"
b101 X"
b101 d"
b101 k"
b101001010000010110110011 B
b101001010000010110110011 >"
b101001010000010110110011 C"
b11 u
b100 H
b100 )"
b100 ."
b100 a"
b0 I
b0 ("
b0 -"
b0 `"
b1010 K
b1010 ,"
b0 >
b0 w
b0 F"
b10000 C
b10000 q
b10000 Z"
b1100 @
b1100 r
b1100 ="
b1100 D"
b1100 ^"
b10000000010010100000011 P
b10000000010010100000011 1"
b10000000010010100000011 ?"
b10000000010010100000011 A"
b10000 G
b10000 ["
b1000 L
b1000 0"
b1000 @"
b11 c
b11 n
b11 4"
1Y
0=
0;
09
b1001 :
b1001 ~
b1001 ""
b1001 G"
10
1-
b1000 /
b1000 #"
b1000 J"
b1000 _"
b101 1
b101 I"
b101 j"
b100 $
1"
#200
0"
#225
b0 6
b0 {
b0 R"
b0 Y"
b0 )
b0 g
b0 7
b0 P"
0J
b100 a
b100 j
b100 z
0R
b0 S
b0 v
b0 +"
0O
0M
b0 .
b0 O"
b0 X"
b0 d"
b0 k"
b0 T
b0 '"
b0 W"
b0 U
b0 &"
b0 N"
13
04
15
b100 f
b100 h
b100 S"
b10100 A
b10100 \"
b10100 ]"
b10 l
b110011 u
b1010 H
b1010 )"
b1010 ."
b1010 a"
b1010 I
b1010 ("
b1010 -"
b1010 `"
b1011 K
b1011 ,"
b100000000010011000000011 B
b100000000010011000000011 >"
b100000000010011000000011 C"
00
0-
b1001 /
b1001 #"
b1001 J"
b1001 _"
b0 1
b0 I"
b0 j"
19
b101 8
b101 x
b101 !"
b1010 ?
b1010 y
b1010 }
b1010 E"
b1010 L"
b1010 U"
b10000000010010100000011 _
b10000000010010100000011 7"
b100 W
b100 $"
b100 ;"
b0 X
b0 %"
b0 :"
1b
b1 c
b1 n
b1 4"
1^
1\
b1010 Z
b1010 |
b1010 *"
b1010 9"
b1000 [
b1000 8"
b100 V
b100 <"
b100 Q"
b101001010000010110110011 P
b101001010000010110110011 1"
b101001010000010110110011 ?"
b101001010000010110110011 A"
b10100 G
b10100 ["
b1100 L
b1100 0"
b1100 @"
b10100 C
b10100 q
b10100 Z"
b10000 @
b10000 r
b10000 ="
b10000 D"
b10000 ^"
b101 $
1"
#250
0"
#275
b100 a
b100 j
b100 z
b11 S
b11 v
b11 +"
1J
b100 )
b100 g
b100 7
b100 P"
b100 6
b100 {
b100 R"
b100 Y"
b100 f
b100 h
b100 S"
b0 e
b0 i
b0 o
03
14
05
b10 T
b10 '"
b10 W"
b10 U
b10 &"
b10 N"
b1010 .
b1010 O"
b1010 X"
b1010 d"
b1010 k"
b0 l
b110 >
b110 w
b110 F"
b101001010000010110110011 _
b101001010000010110110011 7"
b1010 W
b1010 $"
b1010 ;"
b1010 X
b1010 %"
b1010 :"
0b
b0 c
b0 n
b0 4"
0^
0\
0Y
b1011 Z
b1011 |
b1011 *"
b1011 9"
b1100 [
b1100 8"
1=
1;
b1010 :
b1010 ~
b1010 ""
b1010 G"
b0 8
b0 x
b0 !"
b100 ?
b100 y
b100 }
b100 E"
b100 L"
b100 U"
1-
b1010 2
b1010 H"
b1010 i"
b110 $
b10 (
1"
#300
0"
#325
b110 f
b110 h
b110 S"
b110 6
b110 {
b110 R"
b110 Y"
b110 )
b110 g
b110 7
b110 P"
b1100 a
b1100 j
b1100 z
1R
b1 S
b1 v
b1 +"
1O
1M
b110 .
b110 O"
b110 X"
b110 d"
b110 k"
b1 T
b1 '"
b1 W"
b1 U
b1 &"
b1 N"
b11 e
b11 i
b11 o
b1000 D
b1000 /"
b1000 g"
b1000 ,
b1000 B"
b1000 f"
b11000 A
b11000 \"
b11000 ]"
b101 E
b101 2"
b101 b"
b0 >
b0 w
b0 F"
b11 u
b1000 H
b1000 )"
b1000 ."
b1000 a"
b0 I
b0 ("
b0 -"
b0 `"
b1100 K
b1100 ,"
b110001100000011010110011 B
b110001100000011010110011 >"
b110001100000011010110011 C"
10
b1010 /
b1010 #"
b1010 J"
b1010 _"
b110 1
b110 I"
b110 j"
b100 2
b100 H"
b100 i"
0=
0;
09
b1011 :
b1011 ~
b1011 ""
b1011 G"
b100 8
b100 x
b100 !"
b11 c
b11 n
b11 4"
1Y
b100000000010011000000011 P
b100000000010011000000011 1"
b100000000010011000000011 ?"
b100000000010011000000011 A"
b100000 G
b100000 ["
b10000 L
b10000 0"
b10000 @"
b11000 C
b11000 q
b11000 Z"
b10100 @
b10100 r
b10100 ="
b10100 D"
b10100 ^"
b111 $
1"
#350
0"
#375
0J
b1000 a
b1000 j
b1000 z
b0 )
b0 g
b0 7
b0 P"
b101 6
b101 {
b101 R"
b101 Y"
0R
b0 S
b0 v
b0 +"
0O
0M
13
04
15
b11100 A
b11100 \"
b11100 ]"
b1000 f
b1000 h
b1000 S"
b0 T
b0 '"
b0 W"
b0 U
b0 &"
b0 N"
b100 .
b100 O"
b100 X"
b100 d"
b100 k"
b0 E
b0 2"
b0 b"
b110000000010011100000011 B
b110000000010011100000011 >"
b110000000010011100000011 C"
b110011 u
b1100 H
b1100 )"
b1100 ."
b1100 a"
b1100 I
b1100 ("
b1100 -"
b1100 `"
b1101 K
b1101 ,"
b10 l
b11100 C
b11100 q
b11100 Z"
b11000 @
b11000 r
b11000 ="
b11000 D"
b11000 ^"
b110001100000011010110011 P
b110001100000011010110011 1"
b110001100000011010110011 ?"
b110001100000011010110011 A"
b100100 G
b100100 ["
b10100 L
b10100 0"
b10100 @"
b100000000010011000000011 _
b100000000010011000000011 7"
b1000 W
b1000 $"
b1000 ;"
b0 X
b0 %"
b0 :"
1b
b1 c
b1 n
b1 4"
1^
1\
b1100 Z
b1100 |
b1100 *"
b1100 9"
b10000 [
b10000 8"
b1000 V
b1000 <"
b1000 Q"
b101 `
b101 6"
b101 T"
19
b110 8
b110 x
b110 !"
b1100 ?
b1100 y
b1100 }
b1100 E"
b1100 L"
b1100 U"
00
0-
b1011 /
b1011 #"
b1011 J"
b1011 _"
b0 1
b0 I"
b0 j"
b1000 $
1"
#400
0"
#425
b1000 )
b1000 g
b1000 7
b1000 P"
b1000 a
b1000 j
b1000 z
b11 S
b11 v
b11 +"
1J
b1100 .
b1100 O"
b1100 X"
b1100 d"
b1100 k"
b10 T
b10 '"
b10 W"
b10 U
b10 &"
b10 N"
b1000 f
b1000 h
b1000 S"
b0 e
b0 i
b0 o
03
14
05
b1000 6
b1000 {
b1000 R"
b1000 Y"
b1010 >
b1010 w
b1010 F"
b0 l
1-
b1100 2
b1100 H"
b1100 i"
1=
1;
b1100 :
b1100 ~
b1100 ""
b1100 G"
b101 8
b101 x
b101 !"
b1000 ?
b1000 y
b1000 }
b1000 E"
b1000 L"
b1000 U"
b110001100000011010110011 _
b110001100000011010110011 7"
b1100 W
b1100 $"
b1100 ;"
b1100 X
b1100 %"
b1100 :"
0b
b0 c
b0 n
b0 4"
0^
0\
0Y
b1101 Z
b1101 |
b1101 *"
b1101 9"
b10100 [
b10100 8"
b0 `
b0 6"
b0 T"
b1001 $
b11 (
1"
#450
0"
#475
b1010 f
b1010 h
b1010 S"
b10100 a
b10100 j
b10100 z
b1010 )
b1010 g
b1010 7
b1010 P"
b1010 6
b1010 {
b1010 R"
b1010 Y"
1R
b1 S
b1 v
b1 +"
1O
1M
b1100 D
b1100 /"
b1100 g"
b1100 ,
b1100 B"
b1100 f"
b100000 A
b100000 \"
b100000 ]"
b11 e
b11 i
b11 o
b1 T
b1 '"
b1 W"
b1 U
b1 &"
b1 N"
b1010 .
b1010 O"
b1010 X"
b1010 d"
b1010 k"
b0 F
b0 3"
b0 c"
b1010 E
b1010 2"
b1010 b"
b111001110000011110110011 B
b111001110000011110110011 >"
b111001110000011110110011 C"
b11 u
b0 I
b0 ("
b0 -"
b0 `"
b1110 K
b1110 ,"
b0 >
b0 w
b0 F"
b100000 C
b100000 q
b100000 Z"
b11100 @
b11100 r
b11100 ="
b11100 D"
b11100 ^"
b110000000010011100000011 P
b110000000010011100000011 1"
b110000000010011100000011 ?"
b110000000010011100000011 A"
b110000 G
b110000 ["
b11000 L
b11000 0"
b11000 @"
b11 c
b11 n
b11 4"
1Y
0=
0;
09
b1101 :
b1101 ~
b1101 ""
b1101 G"
b1000 8
b1000 x
b1000 !"
10
b1100 /
b1100 #"
b1100 J"
b1100 _"
b1010 1
b1010 I"
b1010 j"
b1000 2
b1000 H"
b1000 i"
b1010 $
1"
#500
0"
#525
b0 )
b0 g
b0 7
b0 P"
0J
b1100 a
b1100 j
b1100 z
0R
b0 S
b0 v
b0 +"
0O
0M
b1000 .
b1000 O"
b1000 X"
b1000 d"
b1000 k"
b0 T
b0 '"
b0 W"
b0 U
b0 &"
b0 N"
13
04
15
b1100 f
b1100 h
b1100 S"
b100100 A
b100100 \"
b100100 ]"
b0 E
b0 2"
b0 b"
b10 l
b110011 u
b1110 H
b1110 )"
b1110 ."
b1110 a"
b1110 I
b1110 ("
b1110 -"
b1110 `"
b1111 K
b1111 ,"
b1110011000000100000110011 B
b1110011000000100000110011 >"
b1110011000000100000110011 C"
00
0-
b1101 /
b1101 #"
b1101 J"
b1101 _"
b0 1
b0 I"
b0 j"
19
b1010 8
b1010 x
b1010 !"
b10100 ?
b10100 y
b10100 }
b10100 E"
b10100 L"
b10100 U"
b110000000010011100000011 _
b110000000010011100000011 7"
b0 X
b0 %"
b0 :"
1b
b1 c
b1 n
b1 4"
1^
1\
b1110 Z
b1110 |
b1110 *"
b1110 9"
b11000 [
b11000 8"
b1100 V
b1100 <"
b1100 Q"
b1010 `
b1010 6"
b1010 T"
b111001110000011110110011 P
b111001110000011110110011 1"
b111001110000011110110011 ?"
b111001110000011110110011 A"
b110100 G
b110100 ["
b11100 L
b11100 0"
b11100 @"
b100100 C
b100100 q
b100100 Z"
b100000 @
b100000 r
b100000 ="
b100000 D"
b100000 ^"
b1011 $
1"
#550
0"
#575
b1100 a
b1100 j
b1100 z
b11 S
b11 v
b11 +"
1J
b1100 )
b1100 g
b1100 7
b1100 P"
b1100 f
b1100 h
b1100 S"
b0 e
b0 i
b0 o
03
14
05
b1100 6
b1100 {
b1100 R"
b1100 Y"
b10 T
b10 '"
b10 W"
b10 U
b10 &"
b10 N"
b10100 .
b10100 O"
b10100 X"
b10100 d"
b10100 k"
b0 l
b10010 >
b10010 w
b10010 F"
b111001110000011110110011 _
b111001110000011110110011 7"
b1110 W
b1110 $"
b1110 ;"
b1110 X
b1110 %"
b1110 :"
0b
b0 c
b0 n
b0 4"
0^
0\
0Y
b1111 Z
b1111 |
b1111 *"
b1111 9"
b11100 [
b11100 8"
b0 `
b0 6"
b0 T"
1=
1;
b1110 :
b1110 ~
b1110 ""
b1110 G"
b1100 ?
b1100 y
b1100 }
b1100 E"
b1100 L"
b1100 U"
1-
b10100 2
b10100 H"
b10100 i"
b1100 $
b100 (
1"
#600
0"
#625
b10010 f
b10010 h
b10010 S"
b10010 6
b10010 {
b10010 R"
b10010 Y"
b10010 )
b10010 g
b10010 7
b10010 P"
b100100 a
b100100 j
b100100 z
b10010 .
b10010 O"
b10010 X"
b10010 d"
b10010 k"
b1 T
b1 '"
b1 W"
b1 U
b1 &"
b1 N"
b11 e
b11 i
b11 o
b101000 A
b101000 \"
b101000 ]"
b111000 E
b111000 2"
b111000 b"
b11111111111111111111111111101000 F
b11111111111111111111111111101000 3"
b11111111111111111111111111101000 c"
b0 >
b0 w
b0 F"
b11100 H
b11100 )"
b11100 ."
b11100 a"
b11000 I
b11000 ("
b11000 -"
b11000 `"
b10000 K
b10000 ,"
b1110111001000100010110011 B
b1110111001000100010110011 >"
b1110111001000100010110011 C"
10
b1110 /
b1110 #"
b1110 J"
b1110 _"
b10010 1
b10010 I"
b10010 j"
b1100 2
b1100 H"
b1100 i"
0=
0;
09
b1111 :
b1111 ~
b1111 ""
b1111 G"
b1100 8
b1100 x
b1100 !"
b11 c
b11 n
b11 4"
1Y
b1110011000000100000110011 P
b1110011000000100000110011 1"
b1110011000000100000110011 ?"
b1110011000000100000110011 A"
b111000 G
b111000 ["
b100000 L
b100000 0"
b100000 @"
b101000 C
b101000 q
b101000 Z"
b100100 @
b100100 r
b100100 ="
b100100 D"
b100100 ^"
b1101 $
1"
#650
0"
#675
b100000 a
b100000 j
b100000 z
b111000 f
b111000 h
b111000 S"
b11111111111111111111111111101000 )
b11111111111111111111111111101000 g
b11111111111111111111111111101000 7
b11111111111111111111111111101000 P"
b111000 6
b111000 {
b111000 R"
b111000 Y"
b101100 A
b101100 \"
b101100 ]"
b0 T
b0 '"
b0 W"
b0 U
b0 &"
b0 N"
b1100 .
b1100 O"
b1100 X"
b1100 d"
b1100 k"
b111010 E
b111010 2"
b111010 b"
b11111111111111111111111111100111 F
b11111111111111111111111111100111 3"
b11111111111111111111111111100111 c"
b1111011010000100100110011 B
b1111011010000100100110011 >"
b1111011010000100100110011 C"
b11101 H
b11101 )"
b11101 ."
b11101 a"
b11001 I
b11001 ("
b11001 -"
b11001 `"
b10001 K
b10001 ,"
b101100 C
b101100 q
b101100 Z"
b101000 @
b101000 r
b101000 ="
b101000 D"
b101000 ^"
b1110111001000100010110011 P
b1110111001000100010110011 1"
b1110111001000100010110011 ?"
b1110111001000100010110011 A"
b111100 G
b111100 ["
b100100 L
b100100 0"
b100100 @"
b1110011000000100000110011 _
b1110011000000100000110011 7"
b11100 W
b11100 $"
b11100 ;"
b11000 X
b11000 %"
b11000 :"
b10000 Z
b10000 |
b10000 *"
b10000 9"
b100000 [
b100000 8"
b111000 `
b111000 6"
b111000 T"
b11111111111111111111111111101000 d
b11111111111111111111111111101000 5"
b11111111111111111111111111101000 K"
19
b10010 8
b10010 x
b10010 !"
b100100 ?
b100100 y
b100100 }
b100100 E"
b100100 L"
b100100 U"
00
0-
b1111 /
b1111 #"
b1111 J"
b1111 _"
b0 1
b0 I"
b0 j"
b1110 $
1"
#700
0"
