verilog_sample_code/test.vcd
$date
	Wed Mar 29 17:28:00 2023
$end
$version
	Icarus Verilog
$end
$timescale
	100ms
$end
$scope module test $end
$var wire 4 ! out [3:0] $end
$var reg 1 " clock $end
$var reg 1 # reset $end
$scope module acc $end
$var wire 1 " clk $end
$var wire 4 $ out [3:0] $end
$var wire 1 # rst $end
$var wire 5 % added [4:0] $end
$var reg 4 & register [3:0] $end
$scope module adder $end
$var wire 4 ' a [3:0] $end
$var wire 4 ( b [3:0] $end
$var wire 1 ) cin $end
$var wire 4 * s [3:0] $end
$var wire 1 + cout $end
$var wire 1 , c2 $end
$var wire 1 - c1 $end
$var wire 1 . c0 $end
$scope module bit0 $end
$var wire 1 / a $end
$var wire 1 0 b $end
$var wire 1 1 carry1 $end
$var wire 1 2 carry2 $end
$var wire 1 ) cin $end
$var wire 1 . cout $end
$var wire 1 3 half_sum $end
$var wire 1 4 s $end
$upscope $end
$scope module bit1 $end
$var wire 1 5 a $end
$var wire 1 6 b $end
$var wire 1 7 carry1 $end
$var wire 1 8 carry2 $end
$var wire 1 . cin $end
$var wire 1 - cout $end
$var wire 1 9 half_sum $end
$var wire 1 : s $end
$upscope $end
$scope module bit2 $end
$var wire 1 ; a $end
$var wire 1 < b $end
$var wire 1 = carry1 $end
$var wire 1 > carry2 $end
$var wire 1 - cin $end
$var wire 1 , cout $end
$var wire 1 ? half_sum $end
$var wire 1 @ s $end
$upscope $end
$scope module bit3 $end
$var wire 1 A a $end
$var wire 1 B b $end
$var wire 1 C carry1 $end
$var wire 1 D carry2 $end
$var wire 1 , cin $end
$var wire 1 + cout $end
$var wire 1 E half_sum $end
$var wire 1 F s $end
$upscope $end
$upscope $end
$upscope $end
$upscope $end
$enddefinitions $end
$comment Show the parameter values. $end
$dumpall
$end
#0
$dumpvars
0F
0E
0D
0C
0B
0A
0@
0?
0>
0=
0<
0;
0:
09
08
07
06
05
14
13
02
01
10
0/
0.
0-
0,
0+
b1 *
0)
b1 (
b0 '
b0 &
b1 %
b0 $
0#
0"
b0 !
$end
#1
1#
#5
1:
b10 %
b10 *
04
1.
03
11
1/
b1 !
b1 $
b1 &
b1 '
1"
#10
0"
#15
0@
0-
14
0.
08
b11 %
b11 *
1:
13
01
19
0/
15
b10 !
b10 $
b10 &
b10 '
1"
#20
0"
#25
1@
1-
18
0:
b100 %
b100 *
04
1.
03
11
1/
b11 !
b11 $
b11 &
b11 '
1"
#30
0"
#35
0F
0-
0,
14
0.
08
0:
0>
b101 %
b101 *
1@
13
01
09
1?
0/
05
1;
b100 !
b100 $
b100 &
b100 '
1"
#40
0"
#45
1:
b110 %
b110 *
04
1.
03
11
1/
b101 !
b101 $
b101 &
b101 '
1"
#50
0"
#55
0F
0,
0>
1@
0-
14
0.
08
b111 %
b111 *
1:
13
01
19
0/
15
b110 !
b110 $
b110 &
b110 '
1"
#60
0"
#65
1F
1,
1>
0@
1-
18
0:
b1000 %
b1000 *
04
1.
03
11
1/
b111 !
b111 $
b111 &
b111 '
1"
#70
0"
#75
0-
0,
0+
14
0.
08
0:
0>
0@
0D
b1001 %
b1001 *
1F
13
01
09
0?
1E
0/
05
0;
1A
b1000 !
b1000 $
b1000 &
b1000 '
1"
#80
0"
#85
1:
b1010 %
b1010 *
04
1.
03
11
1/
b1001 !
b1001 $
b1001 &
b1001 '
1"
#90
0"
#95
0@
0-
14
0.
08
b1011 %
b1011 *
1:
13
01
19
0/
15
b1010 !
b1010 $
b1010 &
b1010 '
1"
#100
0"
#105
1@
1-
18
0:
b1100 %
b1100 *
04
1.
03
11
1/
b1011 !
b1011 $
b1011 &
b1011 '
1"
#110
0"
#115
0+
0D
1F
0-
0,
14
0.
08
0:
0>
b1101 %
b1101 *
1@
13
01
09
1?
0/
05
1;
b1100 !
b1100 $
b1100 &
b1100 '
1"
#120
0"
#125
1:
b1110 %
b1110 *
04
1.
03
11
1/
b1101 !
b1101 $
b1101 &
b1101 '
1"
#130
0"
#135
0+
0D
1F
0,
0>
1@
0-
14
0.
08
b1111 %
b1111 *
1:
13
01
19
0/
15
b1110 !
b1110 $
b1110 &
b1110 '
1"
#140
0"
#145
1+
1D
0F
1,
1>
0@
1-
18
0:
b10000 %
b0 *
04
1.
03
11
1/
b1111 !
b1111 $
b1111 &
b1111 '
1"
#150
0"
#155
0-
0,
0+
14
0.
08
0:
0>
0@
0D
b1 %
b1 *
0F
13
01
09
0?
0E
0/
05
0;
0A
b0 !
b0 $
b0 &
b0 '
1"
#160
0"
#165
1:
b10 %
b10 *
04
1.
03
11
1/
b1 !
b1 $
b1 &
b1 '
1"
#170
0"
#175
0@
0-
14
0.
08
b11 %
b11 *
1:
13
01
19
0/
15
b10 !
b10 $
b10 &
b10 '
1"
#180
0"
#185
1@
1-
18
0:
b100 %
b100 *
04
1.
03
11
1/
b11 !
b11 $
b11 &
b11 '
1"
#190
0"
#195
0F
0-
0,
14
0.
08
0:
0>
b101 %
b101 *
1@
13
01
09
1?
0/
05
1;
b100 !
b100 $
b100 &
b100 '
1"
#200
0"
#205
1:
b110 %
b110 *
04
1.
03
11
1/
b101 !
b101 $
b101 &
b101 '
1"
#210
0"
#215
0F
0,
0>
1@
0-
14
0.
08
b111 %
b111 *
1:
13
01
19
0/
15
b110 !
b110 $
b110 &
b110 '
1"
#220
0"
#225
1F
1,
1>
0@
1-
18
0:
b1000 %
b1000 *
04
1.
03
11
1/
b111 !
b111 $
b111 &
b111 '
1"
#230
0"
#235
0-
0,
0+
14
0.
08
0:
0>
0@
0D
b1001 %
b1001 *
1F
13
01
09
0?
1E
0/
05
0;
1A
b1000 !
b1000 $
b1000 &
b1000 '
1"
#240
0"
#245
1:
b1010 %
b1010 *
04
1.
03
11
1/
b1001 !
b1001 $
b1001 &
b1001 '
1"
#250
0"
#255
0@
0-
14
0.
08
b1011 %
b1011 *
1:
13
01
19
0/
15
b1010 !
b1010 $
b1010 &
b1010 '
1"
#260
0"
#265
1@
1-
18
0:
b1100 %
b1100 *
04
1.
03
11
1/
b1011 !
b1011 $
b1011 &
b1011 '
1"
#270
0"
#275
0+
0D
1F
0-
0,
14
0.
08
0:
0>
b1101 %
b1101 *
1@
13
01
09
1?
0/
05
1;
b1100 !
b1100 $
b1100 &
b1100 '
1"
#280
0"
#285
1:
b1110 %
b1110 *
04
1.
03
11
1/
b1101 !
b1101 $
b1101 &
b1101 '
1"
#290
0"
#295
0+
0D
1F
0,
0>
1@
0-
14
0.
08
b1111 %
b1111 *
1:
13
01
19
0/
15
b1110 !
b1110 $
b1110 &
b1110 '
1"
