lab3/CA111-2_lab3/codes/CPU.vcd
$date
	Tue Jun 13 23:20:17 2023
$end
$version
	Icarus Verilog
$end
$timescale
	1s
$end
$scope module IF_ID $end
$var wire 32 ! PC_i [31:0] $end
$var wire 1 " clk_i $end
$var wire 1 # flush_i $end
$var wire 32 $ inst_i [31:0] $end
$var wire 1 % rst_i $end
$var wire 1 & stall_i $end
$var reg 32 ' PC_o [31:0] $end
$var reg 32 ( inst_o [31:0] $end
$upscope $end
$scope module Next_PC $end
$var wire 1 ) Branch_ID $end
$var wire 1 * Predict_i $end
$var wire 1 + Wrong_predict_i $end
$var wire 32 , jmp_EX_i [31:0] $end
$var wire 32 - jmp_ID_i [31:0] $end
$var wire 32 . pc_adder_i [31:0] $end
$var reg 1 / next_pc_o $end
$upscope $end
$scope module TestBench $end
$var parameter 32 0 num_cycles $end
$var reg 1 1 Clk $end
$var reg 1 2 Reset $end
$var integer 32 3 counter [31:0] $end
$var integer 32 4 i [31:0] $end
$var integer 32 5 outfile [31:0] $end
$scope module CPU $end
$var wire 32 6 ALU_A_i [31:0] $end
$var wire 1 1 clk_i $end
$var wire 1 2 rst_i $end
$var wire 12 7 imme_o [11:0] $end
$var wire 1 8 WB_RegWrite $end
$var wire 32 9 WB_RDdata [31:0] $end
$var wire 5 : WB_RD [4:0] $end
$var wire 1 ; WB_MemtoReg $end
$var wire 32 < WB_MD [31:0] $end
$var wire 32 = WB_ALUout [31:0] $end
$var wire 1 > Stall $end
$var wire 1 ? Predict $end
$var wire 1 @ PCWrite $end
$var wire 1 A NoOp $end
$var wire 32 B MUX_B_o [31:0] $end
$var wire 32 C MUX_A_o [31:0] $end
$var wire 32 D MEM_WD [31:0] $end
$var wire 1 E MEM_RegWrite $end
$var wire 5 F MEM_RD [4:0] $end
$var wire 1 G MEM_MemtoReg $end
$var wire 1 H MEM_MemWrite $end
$var wire 1 I MEM_MemRead $end
$var wire 32 J MEM_MD [31:0] $end
$var wire 32 K MEM_ALUout [31:0] $end
$var wire 32 L IF_PC_o [31:0] $end
$var wire 32 M IF_PC_i [31:0] $end
$var wire 32 N IF_IR [31:0] $end
$var wire 32 O IF_Adder_o [31:0] $end
$var wire 32 P ID_imme [31:0] $end
$var wire 32 Q ID_data2 [31:0] $end
$var wire 32 R ID_data1 [31:0] $end
$var wire 5 S ID_Rs2 [4:0] $end
$var wire 5 T ID_Rs1 [4:0] $end
$var wire 1 U ID_RegWrite $end
$var wire 5 V ID_RD [4:0] $end
$var wire 32 W ID_PC [31:0] $end
$var wire 1 X ID_MemtoReg $end
$var wire 1 Y ID_MemWrite $end
$var wire 1 Z ID_MemRead $end
$var wire 32 [ ID_IR [31:0] $end
$var wire 1 \ ID_Branch $end
$var wire 1 ] ID_ALUSrc $end
$var wire 2 ^ ID_ALUOp [1:0] $end
$var wire 2 _ ForwardB [1:0] $end
$var wire 2 ` ForwardA [1:0] $end
$var wire 32 a EX_imme [31:0] $end
$var wire 5 b EX_Rs2 [4:0] $end
$var wire 5 c EX_Rs1 [4:0] $end
$var wire 1 d EX_RegWrite $end
$var wire 5 e EX_RD [4:0] $end
$var wire 32 f EX_PC [31:0] $end
$var wire 1 g EX_MemtoReg $end
$var wire 1 h EX_MemWrite $end
$var wire 1 i EX_MemRead $end
$var wire 32 j EX_IR [31:0] $end
$var wire 32 k EX_B [31:0] $end
$var wire 32 l EX_ALUout [31:0] $end
$var wire 1 m EX_ALUSrc $end
$var wire 2 n EX_ALUOp [1:0] $end
$var wire 32 o EX_A [31:0] $end
$var wire 3 p ALUctl [2:0] $end
$var wire 32 q ALU_B_i [31:0] $end
$scope module ALU $end
$var wire 32 r data1_i [31:0] $end
$var wire 32 s data2_i [31:0] $end
$var wire 1 t Zero_o $end
$var wire 3 u ALUctl_i [2:0] $end
$var reg 32 v data_o [31:0] $end
$var reg 32 w tmp [31:0] $end
$upscope $end
$scope module ALU_Control $end
$var wire 3 x funct3 [2:0] $end
$var wire 7 y funct7 [6:0] $end
$var wire 2 z ALUOp [1:0] $end
$var reg 3 { ALUctl [2:0] $end
$upscope $end
$scope module Add_PC $end
$var wire 32 | data2_i [31:0] $end
$var wire 32 } data_o [31:0] $end
$var wire 32 ~ data1_i [31:0] $end
$upscope $end
$scope module Branch_Handler $end
$var wire 1 t EX_Zero_i $end
$var wire 32 !" IF_adder_pc_i [31:0] $end
$var wire 1 1 clk_i $end
$var wire 1 2 rst_i $end
$var wire 1 ? Predict_i $end
$var wire 32 "" ID_pc_i [31:0] $end
$var wire 32 #" ID_imme_i [31:0] $end
$var wire 1 \ ID_Branch_i $end
$var wire 32 $" EX_pc_i [31:0] $end
$var wire 32 %" EX_imme_i [31:0] $end
$var wire 1 &" EX_Predict_i $end
$var wire 1 '" EX_Branch_i $end
$var reg 1 (" ID_EX_Flush_o $end
$var reg 1 )" IF_ID_Flush_o $end
$var reg 32 *" next_pc_o [31:0] $end
$scope begin branch $end
$var reg 1 +" WrongPredict $end
$upscope $end
$upscope $end
$scope module Branch_Predictor $end
$var wire 1 1 clk_i $end
$var wire 1 ? predict_o $end
$var wire 1 t result_i $end
$var wire 1 2 rst_i $end
$var wire 1 '" update_i $end
$var reg 2 ," state [1:0] $end
$upscope $end
$scope module Control $end
$var wire 1 -" I_type $end
$var wire 1 ." R_type $end
$var wire 7 /" opcode [6:0] $end
$var wire 1 A NoOp $end
$var reg 2 0" ALUOp [1:0] $end
$var reg 1 ] ALUSrc $end
$var reg 1 \ Branch $end
$var reg 1 Z MemRead $end
$var reg 1 Y MemWrite $end
$var reg 1 X MemtoReg $end
$var reg 1 U RegWrite $end
$upscope $end
$scope module Data_Memory $end
$var wire 1 1 clk_i $end
$var wire 32 1" data_o [31:0] $end
$var wire 32 2" data_i [31:0] $end
$var wire 32 3" addr_i [31:0] $end
$var wire 1 H MemWrite_i $end
$var wire 1 I MemRead_i $end
$upscope $end
$scope module EX_MEM $end
$var wire 32 4" ALUout_i [31:0] $end
$var wire 1 1 clk_i $end
$var wire 1 2 rst_i $end
$var wire 32 5" WD_i [31:0] $end
$var wire 1 d RegWrite_i $end
$var wire 5 6" RD_i [4:0] $end
$var wire 1 g MemtoReg_i $end
$var wire 1 h MemWrite_i $end
$var wire 1 i MemRead_i $end
$var reg 32 7" ALUout_o [31:0] $end
$var reg 1 I MemRead_o $end
$var reg 1 H MemWrite_o $end
$var reg 1 G MemtoReg_o $end
$var reg 5 8" RD_o [4:0] $end
$var reg 1 E RegWrite_o $end
$var reg 32 9" WD_o [31:0] $end
$upscope $end
$scope module Forwarding_Unit $end
$var wire 5 :" MEM_Rd [4:0] $end
$var wire 1 E MEM_RegWrite $end
$var wire 1 8 WB_RegWrite $end
$var wire 5 ;" WB_RD [4:0] $end
$var wire 5 <" EX_Rs2 [4:0] $end
$var wire 5 =" EX_Rs1 [4:0] $end
$var reg 2 >" ForwardA [1:0] $end
$var reg 2 ?" ForwardB [1:0] $end
$upscope $end
$scope module Hazard_Detection_Unit $end
$var wire 5 @" ID_Rs1 [4:0] $end
$var wire 5 A" ID_Rs2 [4:0] $end
$var wire 1 1 clk_i $end
$var wire 1 2 rst_i $end
$var wire 5 B" EX_Rd [4:0] $end
$var wire 1 i EX_MemRead $end
$var reg 1 A NoOp $end
$var reg 1 @ PCWrite $end
$var reg 1 > Stall $end
$upscope $end
$scope module ID_EX $end
$var wire 2 C" ALUOp_i [1:0] $end
$var wire 1 ] ALUSrc_i $end
$var wire 1 \ Branch_i $end
$var wire 1 (" Flush_i $end
$var wire 1 Z MemRead_i $end
$var wire 1 Y MemWrite_i $end
$var wire 1 X MemtoReg_i $end
$var wire 1 ? Predict_i $end
$var wire 5 D" RD_i [4:0] $end
$var wire 1 U RegWrite_i $end
$var wire 5 E" Rs1_i [4:0] $end
$var wire 5 F" Rs2_i [4:0] $end
$var wire 1 1 clk_i $end
$var wire 1 2 rst_i $end
$var wire 32 G" imme_i [31:0] $end
$var wire 32 H" PC_i [31:0] $end
$var wire 32 I" IR_i [31:0] $end
$var wire 32 J" B_i [31:0] $end
$var wire 32 K" A_i [31:0] $end
$var reg 2 L" ALUOp_o [1:0] $end
$var reg 1 m ALUSrc_o $end
$var reg 32 M" A_o [31:0] $end
$var reg 32 N" B_o [31:0] $end
$var reg 1 '" Branch_o $end
$var reg 32 O" IR_o [31:0] $end
$var reg 1 i MemRead_o $end
$var reg 1 h MemWrite_o $end
$var reg 1 g MemtoReg_o $end
$var reg 32 P" PC_o [31:0] $end
$var reg 1 &" Predict_o $end
$var reg 5 Q" RD_o [4:0] $end
$var reg 1 d RegWrite_o $end
$var reg 5 R" Rs1_o [4:0] $end
$var reg 5 S" Rs2_o [4:0] $end
$var reg 32 T" imme_o [31:0] $end
$upscope $end
$scope module IF_ID $end
$var wire 1 )" Flush_i $end
$var wire 1 > Stall_i $end
$var wire 1 1 clk_i $end
$var wire 1 2 rst_i $end
$var wire 32 U" PC_i [31:0] $end
$var wire 32 V" IR_i [31:0] $end
$var reg 32 W" IR_o [31:0] $end
$var reg 32 X" PC_o [31:0] $end
$upscope $end
$scope module Imme_Gen $end
$var wire 32 Y" IR [31:0] $end
$var reg 12 Z" imme [11:0] $end
$upscope $end
$scope module Instruction_Memory $end
$var wire 32 [" instr_o [31:0] $end
$var wire 32 \" addr_i [31:0] $end
$upscope $end
$scope module MEM_WB $end
$var wire 32 ]" ALUout_i [31:0] $end
$var wire 32 ^" MD_i [31:0] $end
$var wire 1 G MemtoReg_i $end
$var wire 5 _" RD_i [4:0] $end
$var wire 1 E RegWrite_i $end
$var wire 1 1 clk_i $end
$var wire 1 2 rst_i $end
$var reg 32 `" ALUout_o [31:0] $end
$var reg 32 a" MD_o [31:0] $end
$var reg 1 ; MemtoReg_o $end
$var reg 5 b" RD_o [4:0] $end
$var reg 1 8 RegWrite_o $end
$upscope $end
$scope module MUX_A $end
$var wire 32 c" in00 [31:0] $end
$var wire 32 d" in10 [31:0] $end
$var wire 32 e" in11 [31:0] $end
$var wire 2 f" swt [1:0] $end
$var wire 32 g" in01 [31:0] $end
$var reg 32 h" res [31:0] $end
$upscope $end
$scope module MUX_ALUSrc $end
$var wire 32 i" in1 [31:0] $end
$var wire 1 m swt $end
$var wire 32 j" in0 [31:0] $end
$var reg 32 k" res [31:0] $end
$upscope $end
$scope module MUX_B $end
$var wire 32 l" in00 [31:0] $end
$var wire 32 m" in10 [31:0] $end
$var wire 32 n" in11 [31:0] $end
$var wire 2 o" swt [1:0] $end
$var wire 32 p" in01 [31:0] $end
$var reg 32 q" res [31:0] $end
$upscope $end
$scope module PC $end
$var wire 1 @ PCWrite_i $end
$var wire 1 1 clk_i $end
$var wire 32 r" pc_i [31:0] $end
$var wire 1 2 rst_i $end
$var reg 32 s" pc_o [31:0] $end
$upscope $end
$scope module Registers $end
$var wire 5 t" RDaddr_i [4:0] $end
$var wire 5 u" RS1addr_i [4:0] $end
$var wire 5 v" RS2addr_i [4:0] $end
$var wire 1 8 RegWrite_i $end
$var wire 1 1 clk_i $end
$var wire 1 2 rst_i $end
$var wire 32 w" RS2data_o [31:0] $end
$var wire 32 x" RS1data_o [31:0] $end
$var wire 32 y" RDdata_i [31:0] $end
$var integer 32 z" i [31:0] $end
$upscope $end
$scope module Sign_Extend $end
$var wire 12 {" in [11:0] $end
$var wire 32 |" out [31:0] $end
$var wire 20 }" ext [19:0] $end
$upscope $end
$scope module WB_MUX $end
$var wire 32 ~" in0 [31:0] $end
$var wire 32 !# in1 [31:0] $end
$var wire 1 ; swt $end
$var reg 32 "# res [31:0] $end
$upscope $end
$upscope $end
$upscope $end
$enddefinitions $end
$comment Show the parameter values. $end
$dumpall
b1000000 0
$end
#0
$dumpvars
bx "#
bx !#
bx ~"
bx }"
bx |"
bx {"
bx z"
bx y"
bx x"
bx w"
bx v"
bx u"
bx t"
bx s"
bx r"
bx q"
bx p"
bx o"
b0 n"
bx m"
bx l"
bx k"
bx j"
bx i"
bx h"
bx g"
bx f"
b0 e"
bx d"
bx c"
bx b"
bx a"
bx `"
bx _"
bx ^"
bx ]"
bx \"
bx ["
bx Z"
bx Y"
bx X"
bx W"
bx V"
bx U"
bx T"
bx S"
bx R"
bx Q"
bx P"
bx O"
bx N"
bx M"
bx L"
bx K"
bx J"
bx I"
bx H"
bx G"
bx F"
bx E"
bx D"
bx C"
bx B"
bx A"
bx @"
bx ?"
bx >"
bx ="
bx <"
bx ;"
bx :"
bx 9"
bx 8"
bx 7"
bx 6"
bx 5"
bx 4"
bx 3"
bx 2"
bx 1"
bx 0"
bx /"
1."
1-"
bx ,"
x+"
bx *"
x)"
x("
x'"
x&"
bx %"
bx $"
bx #"
bx ""
bx !"
bx ~
bx }
b100 |
bx {
bx z
bx y
bx x
bx w
bx v
bx u
xt
bx s
bx r
bx q
bx p
bx o
bx n
xm
bx l
bx k
bx j
xi
xh
xg
bx f
bx e
xd
bx c
bx b
bx a
bx `
bx _
bx ^
x]
x\
bx [
xZ
xY
xX
bx W
bx V
xU
bx T
bx S
bx R
bx Q
bx P
bx O
bx N
bx M
bx L
bx K
bx J
xI
xH
xG
bx F
xE
bx D
bx C
bx B
xA
x@
x?
x>
bx =
bx <
x;
bx :
bx 9
x8
bx 7
bx 6
b11 5
b100000 4
b0 3
12
01
z/
bz .
bz -
bz ,
z+
z*
z)
bx (
bx '
z&
z%
bz $
z#
z"
bz !
$end
#6
1+"
b0 l
b0 v
b0 4"
0)"
1t
b0 q
b0 s
b0 k"
0\
0Y
0Z
0X
0U
0]
b0 ^
b0 0"
b0 C"
b100 p
b100 u
b100 {
0>
1@
0A
b100 M
b100 *"
b100 r"
0("
b0 6
b0 r
b0 C
b0 h"
b0 B
b0 5"
b0 j"
b0 q"
b0 _
b0 ?"
b0 o"
b0 `
b0 >"
b0 f"
b0 9
b0 g"
b0 p"
b0 y"
b0 "#
b0 R
b0 K"
b0 x"
b0 Q
b0 J"
b0 w"
1?
b110000010011 N
b110000010011 V"
b110000010011 ["
b0 /"
b0 S
b0 A"
b0 F"
b0 v"
b0 T
b0 @"
b0 E"
b0 u"
b0 V
b0 D"
b0 x
b0 y
b0 J
b0 1"
b0 ^"
b100 O
b100 }
b100 !"
b0 L
b0 ~
b0 U"
b0 \"
b0 s"
b0 [
b0 I"
b0 W"
b0 Y"
b0 W
b0 ""
b0 H"
b0 X"
0&"
0'"
b0 j
b0 O"
b0 b
b0 <"
b0 S"
b0 c
b0 ="
b0 R"
0m
b0 n
b0 z
b0 L"
0h
0i
0g
0d
b0 e
b0 6"
b0 B"
b0 Q"
b0 f
b0 $"
b0 P"
b0 a
b0 %"
b0 T"
b0 i"
b0 k
b0 N"
b0 l"
b0 o
b0 M"
b0 c"
0H
0I
0G
0E
b0 F
b0 8"
b0 :"
b0 _"
b0 D
b0 2"
b0 9"
b0 K
b0 3"
b0 7"
b0 ]"
b0 d"
b0 m"
0;
08
b0 :
b0 ;"
b0 b"
b0 t"
b0 <
b0 a"
b0 !#
b0 =
b0 `"
b0 ~"
b0 ,"
b100000 z"
02
#12
12
#25
b0 }"
1]
b10 ^
b10 0"
b10 C"
1U
b0 P
b0 #"
b0 G"
b0 |"
b0 7
b0 Z"
b0 {"
b1000 M
b1000 *"
b1000 r"
0+"
b10011 /"
b11000 V
b11000 D"
b10000000000110100010011 N
b10000000000110100010011 V"
b10000000000110100010011 ["
1&"
bx a
bx %"
bx T"
bx i"
b110000010011 [
b110000010011 I"
b110000010011 W"
b110000010011 Y"
b1000 O
b1000 }
b1000 !"
b100 L
b100 ~
b100 U"
b100 \"
b100 s"
b1 3
11
#50
01
#75
b100 P
b100 #"
b100 G"
b100 |"
b100 7
b100 Z"
b100 {"
b11 p
b11 u
b11 {
b1100 M
b1100 *"
b1100 r"
b10000000000111000010011 N
b10000000000111000010011 V"
b10000000000111000010011 ["
b100 S
b100 A"
b100 F"
b100 v"
b11010 V
b11010 D"
b1100 O
b1100 }
b1100 !"
b1000 L
b1000 ~
b1000 U"
b1000 \"
b1000 s"
b10000000000110100010011 [
b10000000000110100010011 I"
b10000000000110100010011 W"
b10000000000110100010011 Y"
b100 W
b100 ""
b100 H"
b100 X"
b110000010011 j
b110000010011 O"
1m
b10 n
b10 z
b10 L"
1d
b11000 e
b11000 6"
b11000 B"
b11000 Q"
b0 a
b0 %"
b0 T"
b0 i"
b10 3
11
#100
01
#125
1+"
b100 l
b100 v
b100 4"
0t
b100 q
b100 s
b100 k"
b10000 M
b10000 *"
b10000 r"
b11100 V
b11100 D"
b11111111111100000000011110010011 N
b11111111111100000000011110010011 V"
b11111111111100000000011110010011 ["
1E
b11000 F
b11000 8"
b11000 :"
b11000 _"
b10000000000110100010011 j
b10000000000110100010011 O"
b100 b
b100 <"
b100 S"
b11010 e
b11010 6"
b11010 B"
b11010 Q"
b100 f
b100 $"
b100 P"
b100 a
b100 %"
b100 T"
b100 i"
b10000000000111000010011 [
b10000000000111000010011 I"
b10000000000111000010011 W"
b10000000000111000010011 Y"
b1000 W
b1000 ""
b1000 H"
b1000 X"
b10000 O
b10000 }
b10000 !"
b1100 L
b1100 ~
b1100 U"
b1100 \"
b1100 s"
b11 3
11
#150
01
#175
b11111111111111111111 }"
b11111111111111111111111111111111 P
b11111111111111111111111111111111 #"
b11111111111111111111111111111111 G"
b11111111111111111111111111111111 |"
b111111111111 7
b111111111111 Z"
b111111111111 {"
b10100 M
b10100 *"
b10100 r"
b111110 Q
b111110 J"
b111110 w"
b11110011010000110010110011 N
b11110011010000110010110011 V"
b11110011010000110010110011 ["
b11111 S
b11111 A"
b11111 F"
b11111 v"
b1111 V
b1111 D"
b10100 O
b10100 }
b10100 !"
b10000 L
b10000 ~
b10000 U"
b10000 \"
b10000 s"
b11111111111100000000011110010011 [
b11111111111100000000011110010011 I"
b11111111111100000000011110010011 W"
b11111111111100000000011110010011 Y"
b1100 W
b1100 ""
b1100 H"
b1100 X"
b10000000000111000010011 j
b10000000000111000010011 O"
b11100 e
b11100 6"
b11100 B"
b11100 Q"
b1000 f
b1000 $"
b1000 P"
b11010 F
b11010 8"
b11010 :"
b11010 _"
b100 K
b100 3"
b100 7"
b100 ]"
b100 d"
b100 m"
18
b11000 :
b11000 ;"
b11000 b"
b11000 t"
b100 3
11
#200
01
#225
b11111111111111111111111111111111 l
b11111111111111111111111111111111 v
b11111111111111111111111111111111 4"
0]
b11 ^
b11 0"
b11 C"
b100 9
b100 g"
b100 p"
b100 y"
b100 "#
b11111111111111111111111111111111 q
b11111111111111111111111111111111 s
b11111111111111111111111111111111 k"
b111110 B
b111110 5"
b111110 j"
b111110 q"
b11000 M
b11000 *"
b11000 r"
b111000 Q
b111000 J"
b111000 w"
b100 R
b100 K"
b100 x"
b1111111 y
b110011 /"
b11100 S
b11100 A"
b11100 F"
b11100 v"
b11010 T
b11010 @"
b11010 E"
b11010 u"
b11001 V
b11001 D"
b11111111111111010000110100010011 N
b11111111111111010000110100010011 V"
b11111111111111010000110100010011 ["
b11010 :
b11010 ;"
b11010 b"
b11010 t"
b100 =
b100 `"
b100 ~"
b11100 F
b11100 8"
b11100 :"
b11100 _"
b11111111111100000000011110010011 j
b11111111111100000000011110010011 O"
b11111 b
b11111 <"
b11111 S"
b1111 e
b1111 6"
b1111 B"
b1111 Q"
b1100 f
b1100 $"
b1100 P"
b11111111111111111111111111111111 a
b11111111111111111111111111111111 %"
b11111111111111111111111111111111 T"
b11111111111111111111111111111111 i"
b111110 k
b111110 N"
b111110 l"
b11110011010000110010110011 [
b11110011010000110010110011 I"
b11110011010000110010110011 W"
b11110011010000110010110011 Y"
b10000 W
b10000 ""
b10000 H"
b10000 X"
b11000 O
b11000 }
b11000 !"
b10100 L
b10100 ~
b10100 U"
b10100 \"
b10100 s"
b101 3
11
#250
01
#275
0+"
1t
b10000 l
b10000 v
b10000 4"
1]
b10 ^
b10 0"
b10 C"
b101 p
b101 u
b101 {
b100 q
b100 s
b100 k"
b11100 M
b11100 *"
b11100 r"
b100 6
b100 r
b100 C
b100 h"
b100 B
b100 5"
b100 j"
b100 q"
b1 _
b1 ?"
b1 o"
b111110 Q
b111110 J"
b111110 w"
b11001010110110000011 N
b11001010110110000011 V"
b11001010110110000011 ["
b10011 /"
b11111 S
b11111 A"
b11111 F"
b11111 v"
b11010 V
b11010 D"
b1 y
b11100 O
b11100 }
b11100 !"
b11000 L
b11000 ~
b11000 U"
b11000 \"
b11000 s"
b11111111111111010000110100010011 [
b11111111111111010000110100010011 I"
b11111111111111010000110100010011 W"
b11111111111111010000110100010011 Y"
b10100 W
b10100 ""
b10100 H"
b10100 X"
b11110011010000110010110011 j
b11110011010000110010110011 O"
b11100 b
b11100 <"
b11100 S"
b11010 c
b11010 ="
b11010 R"
0m
b11 n
b11 z
b11 L"
b11001 e
b11001 6"
b11001 B"
b11001 Q"
b10000 f
b10000 $"
b10000 P"
b111000 k
b111000 N"
b111000 l"
b100 o
b100 M"
b100 c"
b1111 F
b1111 8"
b1111 :"
b1111 _"
b111110 D
b111110 2"
b111110 9"
b11111111111111111111111111111111 K
b11111111111111111111111111111111 3"
b11111111111111111111111111111111 7"
b11111111111111111111111111111111 ]"
b11111111111111111111111111111111 d"
b11111111111111111111111111111111 m"
b11100 :
b11100 ;"
b11100 b"
b11100 t"
b110 3
11
#300
01
#325
b111110 B
b111110 5"
b111110 j"
b111110 q"
b11 l
b11 v
b11 4"
1+"
b0 }"
b1 ^
b1 0"
b1 C"
1Z
1X
b11111111111111111111111111111111 9
b11111111111111111111111111111111 g"
b11111111111111111111111111111111 p"
b11111111111111111111111111111111 y"
b11111111111111111111111111111111 "#
b0 _
b0 ?"
b0 o"
0t
b11111111111111111111111111111111 q
b11111111111111111111111111111111 s
b11111111111111111111111111111111 k"
b11 p
b11 u
b11 {
b0 P
b0 #"
b0 G"
b0 |"
b0 7
b0 Z"
b0 {"
b100000 M
b100000 *"
b100000 r"
b0 Q
b0 J"
b0 w"
b11111111111111111111111111100111 R
b11111111111111111111111111100111 K"
b11111111111111111111111111100111 x"
b1111111 y
b11 /"
b0 S
b0 A"
b0 F"
b0 v"
b11001 T
b11001 @"
b11001 E"
b11001 u"
b11011 V
b11011 D"
b1101111000000110000110011 N
b1101111000000110000110011 V"
b1101111000000110000110011 ["
b1111 :
b1111 ;"
b1111 b"
b1111 t"
b11111111111111111111111111111111 =
b11111111111111111111111111111111 `"
b11111111111111111111111111111111 ~"
b11001 F
b11001 8"
b11001 :"
b11001 _"
b100 D
b100 2"
b100 9"
b10000 K
b10000 3"
b10000 7"
b10000 ]"
b10000 d"
b10000 m"
b11111111111111010000110100010011 j
b11111111111111010000110100010011 O"
b11111 b
b11111 <"
b11111 S"
1m
b10 n
b10 z
b10 L"
b11010 e
b11010 6"
b11010 B"
b11010 Q"
b10100 f
b10100 $"
b10100 P"
b111110 k
b111110 N"
b111110 l"
b11001010110110000011 [
b11001010110110000011 I"
b11001010110110000011 W"
b11001010110110000011 Y"
b11000 W
b11000 ""
b11000 H"
b11000 X"
b100000 O
b100000 }
b100000 !"
b11100 L
b11100 ~
b11100 U"
b11100 \"
b11100 s"
b111 3
11
#350
01
#375
0U
b10000 l
b10000 v
b10000 4"
0]
b0 ^
b0 0"
b0 C"
0Z
0X
1>
0@
1A
b100100 M
b100100 *"
b100100 r"
b0 q
b0 s
b0 k"
b10000 6
b10000 r
b10000 C
b10000 h"
b0 B
b0 5"
b0 j"
b0 q"
b1 `
b1 >"
b1 f"
b10000 9
b10000 g"
b10000 p"
b10000 y"
b10000 "#
b11111111111111111111111111100101 Q
b11111111111111111111111111100101 J"
b11111111111111111111111111100101 w"
b0 R
b0 K"
b0 x"
b111111010000010001100011 N
b111111010000010001100011 V"
b111111010000010001100011 ["
b110011 /"
b11011 S
b11011 A"
b11011 F"
b11011 v"
b11000 T
b11000 @"
b11000 E"
b11000 u"
b11000 V
b11000 D"
b10 x
b0 y
b100100 O
b100100 }
b100100 !"
b100000 L
b100000 ~
b100000 U"
b100000 \"
b100000 s"
b1101111000000110000110011 [
b1101111000000110000110011 I"
b1101111000000110000110011 W"
b1101111000000110000110011 Y"
b11100 W
b11100 ""
b11100 H"
b11100 X"
b11001010110110000011 j
b11001010110110000011 O"
b0 b
b0 <"
b0 S"
b11001 c
b11001 ="
b11001 R"
b1 n
b1 z
b1 L"
1i
1g
b11011 e
b11011 6"
b11011 B"
b11011 Q"
b11000 f
b11000 $"
b11000 P"
b0 a
b0 %"
b0 T"
b0 i"
b0 k
b0 N"
b0 l"
b11111111111111111111111111100111 o
b11111111111111111111111111100111 M"
b11111111111111111111111111100111 c"
b11010 F
b11010 8"
b11010 :"
b11010 _"
b111110 D
b111110 2"
b111110 9"
b11 K
b11 3"
b11 7"
b11 ]"
b11 d"
b11 m"
b11001 :
b11001 ;"
b11001 b"
b11001 t"
b10000 =
b10000 `"
b10000 ~"
b1000 3
11
#400
01
#425
b11111111111111111111111111110000 l
b11111111111111111111111111110000 v
b11111111111111111111111111110000 4"
b0 6
b0 r
b0 C
b0 h"
b11 ^
b11 0"
b11 C"
1U
b10000 q
b10000 s
b10000 k"
b11 9
b11 g"
b11 p"
b11 y"
b11 "#
b10 _
b10 ?"
b10 o"
b0 `
b0 >"
b0 f"
b100 p
b100 u
b100 {
0>
1@
0A
b10000 B
b10000 5"
b10000 j"
b10000 q"
b11101 J
b11101 1"
b11101 ^"
b0 x
b11010 :
b11010 ;"
b11010 b"
b11010 t"
b11 =
b11 `"
b11 ~"
1I
1G
b11011 F
b11011 8"
b11011 :"
b11011 _"
b0 D
b0 2"
b0 9"
b10000 K
b10000 3"
b10000 7"
b10000 ]"
b10000 d"
b10000 m"
b1101111000000110000110011 j
b1101111000000110000110011 O"
b11011 b
b11011 <"
b11011 S"
b11000 c
b11000 ="
b11000 R"
0m
b0 n
b0 z
b0 L"
0i
0g
0d
b11000 e
b11000 6"
b11000 B"
b11000 Q"
b11100 f
b11100 $"
b11100 P"
b11111111111111111111111111100101 k
b11111111111111111111111111100101 N"
b11111111111111111111111111100101 l"
b0 o
b0 M"
b0 c"
b1001 3
11
#450
01
#475
1)"
b11101 l
b11101 v
b11101 4"
b11101 q
b11101 s
b11101 k"
1\
b0 ^
b0 0"
b0 C"
0U
b100 P
b100 #"
b100 G"
b100 |"
b100 7
b100 Z"
b100 {"
b101000 M
b101000 *"
b101000 r"
b11 p
b11 u
b11 {
b11101 B
b11101 5"
b11101 j"
b11101 q"
b1 _
b1 ?"
b1 o"
b11101 9
b11101 g"
b11101 p"
b11101 y"
b11101 "#
b11111111111111111111111111111111 Q
b11111111111111111111111111111111 J"
b11111111111111111111111111111111 w"
b11 R
b11 K"
b11 x"
b11111110000000000000011011100011 N
b11111110000000000000011011100011 V"
b11111110000000000000011011100011 ["
b1100011 /"
b1111 S
b1111 A"
b1111 F"
b1111 v"
b11010 T
b11010 @"
b11010 E"
b11010 u"
b1000 V
b1000 D"
b0 J
b0 1"
b0 ^"
b101000 O
b101000 }
b101000 !"
b100100 L
b100100 ~
b100100 U"
b100100 \"
b100100 s"
b111111010000010001100011 [
b111111010000010001100011 I"
b111111010000010001100011 W"
b111111010000010001100011 Y"
b100000 W
b100000 ""
b100000 H"
b100000 X"
b11 n
b11 z
b11 L"
1d
0I
0G
0E
b11000 F
b11000 8"
b11000 :"
b11000 _"
b10000 D
b10000 2"
b10000 9"
b11111111111111111111111111110000 K
b11111111111111111111111111110000 3"
b11111111111111111111111111110000 7"
b11111111111111111111111111110000 ]"
b11111111111111111111111111110000 d"
b11111111111111111111111111110000 m"
1;
b11011 :
b11011 ;"
b11011 b"
b11011 t"
b11101 <
b11101 a"
b11101 !#
b10000 =
b10000 `"
b10000 ~"
b1010 3
11
#500
01
#525
b11111111111111111111111111111111 q
b11111111111111111111111111111111 s
b11111111111111111111111111111111 k"
b11111111111111111111111111111111 B
b11111111111111111111111111111111 5"
b11111111111111111111111111111111 j"
b11111111111111111111111111111111 q"
b100 l
b100 v
b100 4"
0\
b11111111111111111111111111110000 9
b11111111111111111111111111110000 g"
b11111111111111111111111111110000 p"
b11111111111111111111111111110000 y"
b11111111111111111111111111110000 "#
b0 _
b0 ?"
b0 o"
b100 p
b100 u
b100 {
b11 6
b11 r
b11 C
b11 h"
b100100 M
b100100 *"
b100100 r"
1("
b0 Q
b0 J"
b0 w"
b0 R
b0 K"
b0 x"
b0 /"
b0 S
b0 A"
b0 F"
b0 v"
b0 T
b0 @"
b0 E"
b0 u"
b0 V
b0 D"
b1100000000010111000100011 N
b1100000000010111000100011 V"
b1100000000010111000100011 ["
0;
08
b11000 :
b11000 ;"
b11000 b"
b11000 t"
b0 <
b0 a"
b0 !#
b11111111111111111111111111110000 =
b11111111111111111111111111110000 `"
b11111111111111111111111111110000 ~"
1E
b11101 D
b11101 2"
b11101 9"
b11101 K
b11101 3"
b11101 7"
b11101 ]"
b11101 d"
b11101 m"
1'"
b111111010000010001100011 j
b111111010000010001100011 O"
b1111 b
b1111 <"
b1111 S"
b11010 c
b11010 ="
b11010 R"
b0 n
b0 z
b0 L"
0d
b1000 e
b1000 6"
b1000 B"
b1000 Q"
b100000 f
b100000 $"
b100000 P"
b100 a
b100 %"
b100 T"
b100 i"
b11111111111111111111111111111111 k
b11111111111111111111111111111111 N"
b11111111111111111111111111111111 l"
b11 o
b11 M"
b11 c"
b0 [
b0 I"
b0 W"
b0 Y"
b0 W
b0 ""
b0 H"
b0 X"
b101100 O
b101100 }
b101100 !"
b101000 L
b101000 ~
b101000 U"
b101000 \"
b101000 s"
b1011 3
11
#550
01
